*** Life<ConwayCell> 1x11 ***

Generation = 0, Population = 5.
**....*.*.*

Generation = 2, Population = 0.
...........

Generation = 4, Population = 0.
...........

Generation = 6, Population = 0.
...........

*** Life<ConwayCell> 11x13 ***

Generation = 0, Population = 81.
****.***.****
***.**.**....
*...*.*.*.**.
..***...****.
*.*..***.**.*
****.*.*.****
**....*..*..*
.*.....****..
..*.*.*...*.*
*.*...*******
*****.*.**...

*** Life<ConwayCell> 2x13 ***

Generation = 0, Population = 17.
**.*.****.*..
**.***.**.*.*

Generation = 3, Population = 4.
**...........
**...........

*** Life<ConwayCell> 4x10 ***

Generation = 0, Population = 8.
*...**....
***.......
........*.
..*.......

Generation = 2, Population = 5.
**........
**........
.*........
..........

Generation = 4, Population = 3.
.*........
..*.......
.*........
..........

Generation = 6, Population = 0.
..........
..........
..........
..........

Generation = 8, Population = 0.
..........
..........
..........
..........

*** Life<ConwayCell> 12x8 ***

Generation = 0, Population = 14.
........
........
........
*.......
........
*...*...
.*.*....
*.......
.**.....
.....**.
.*....*.
..**....

Generation = 1, Population = 12.
........
........
........
........
........
........
**......
*.......
.*......
.**..**.
..*..**.
..*.....

Generation = 2, Population = 14.
........
........
........
........
........
........
**......
*.......
***.....
.**..**.
..**.**.
........

Generation = 3, Population = 15.
........
........
........
........
........
........
**......
..*.....
*.*.....
*...***.
.******.
........

Generation = 4, Population = 15.
........
........
........
........
........
........
.*......
*.*.....
...*.*..
*.....*.
.***..*.
..****..

Generation = 5, Population = 14.
........
........
........
........
........
........
.*......
.**.....
.*......
.*.****.
.*....*.
.*..**..

Generation = 6, Population = 20.
........
........
........
........
........
........
.**.....
***.....
**.***..
**..***.
**.*..*.
.....*..

*** Life<ConwayCell> 1x12 ***

Generation = 0, Population = 12.
************

Generation = 4, Population = 4.
....****....

Generation = 8, Population = 0.
............

*** Life<ConwayCell> 15x1 ***

Generation = 0, Population = 15.
*
*
*
*
*
*
*
*
*
*
*
*
*
*
*

Generation = 1, Population = 13.
.
*
*
*
*
*
*
*
*
*
*
*
*
*
.

Generation = 2, Population = 11.
.
.
*
*
*
*
*
*
*
*
*
*
*
.
.

*** Life<ConwayCell> 5x7 ***

Generation = 0, Population = 22.
*******
...**.*
***.**.
***..*.
...***.

Generation = 3, Population = 8.
.......
.....**
.***...
......*
.*...*.

Generation = 6, Population = 0.
.......
.......
.......
.......
.......

*** Life<ConwayCell> 2x10 ***

Generation = 0, Population = 8.
**...**..*
....**.*..

*** Life<ConwayCell> 3x15 ***

Generation = 0, Population = 32.
*.*.....*.*****
****.******.***
**..***.*.*****

Generation = 3, Population = 2.
..*............
....*..........
...............

*** Life<ConwayCell> 11x7 ***

Generation = 0, Population = 27.
*......
.*.*...
**.**.*
.......
**.....
....**.
***.***
.*.**.*
.*..***
...*...
.......

Generation = 4, Population = 19.
.***...
.****..
*...*..
...**..
....*..
..*..*.
.*..*..
.***...
.......
.......
.......

*** Life<ConwayCell> 13x10 ***

Generation = 0, Population = 71.
.**.*.***.
**.*.**..*
*..**.*..*
*...****.*
****.....*
**.**.*...
.*******..
..*...***.
*.*.******
**.****.*.
*.*.**..*.
...****..*
*.....*...

Generation = 4, Population = 31.
*..*...**.
...*.....*
***...**.*
........*.
......***.
..........
......*..*
.......*.*
**........
*.*.....*.
*.......*.
.....*....
.**..*....

*** Life<ConwayCell> 11x4 ***

Generation = 0, Population = 35.
****
****
****
*..*
****
*.**
**.*
**..
.*..
****
****

Generation = 4, Population = 0.
....
....
....
....
....
....
....
....
....
....
....

*** Life<ConwayCell> 10x2 ***

Generation = 0, Population = 20.
**
**
**
**
**
**
**
**
**
**

Generation = 3, Population = 0.
..
..
..
..
..
..
..
..
..
..

Generation = 6, Population = 0.
..
..
..
..
..
..
..
..
..
..

*** Life<ConwayCell> 7x8 ***

Generation = 0, Population = 47.
***.****
*******.
********
.****.*.
.*******
..******
******.*

Generation = 2, Population = 0.
........
........
........
........
........
........
........

Generation = 4, Population = 0.
........
........
........
........
........
........
........

Generation = 6, Population = 0.
........
........
........
........
........
........
........

*** Life<ConwayCell> 13x13 ***

Generation = 0, Population = 63.
.**..*.......
**......**...
...*...****.*
...*...**.*..
.**..*.***...
*.*....*.***.
**....*...**.
.*..*...*....
.......*.**.*
...........**
*.***...***.*
...*.*...**..
.*.**.*.***.*

Generation = 4, Population = 41.
.............
*..*......**.
...**.....*.*
...*........*
..........*.*
*.......***..
*.....**....*
*.....*......
*..*..*....**
......*......
.**...*..*...
.*.*...***...
..**...**....

Generation = 8, Population = 35.
.............
..***.....**.
..*.*........
..***........
........*..*.
.........*.*.
.*...........
*.**.........
..**.........
*.*..........
*..**...*....
.*..*..*.*...
..***..*.*...

*** Life<ConwayCell> 10x6 ***

Generation = 0, Population = 43.
*.****
*.**.*
....*.
**..**
******
*.***.
******
*****.
**..**
.**.**

Generation = 1, Population = 14.
..*..*
..*..*
*.*...
*.....
......
......
.....*
......
......
******

Generation = 2, Population = 11.
......
..**..
......
.*....
......
......
......
......
.****.
.****.

Generation = 3, Population = 7.
......
......
..*...
......
......
......
......
..**..
.*..*.
.*..*.

Generation = 4, Population = 4.
......
......
......
......
......
......
......
..**..
.*..*.
......

Generation = 5, Population = 4.
......
......
......
......
......
......
......
..**..
..**..
......

Generation = 6, Population = 4.
......
......
......
......
......
......
......
..**..
..**..
......

Generation = 7, Population = 4.
......
......
......
......
......
......
......
..**..
..**..
......

Generation = 8, Population = 4.
......
......
......
......
......
......
......
..**..
..**..
......

*** Life<ConwayCell> 2x9 ***

Generation = 0, Population = 17.
****.****
*********

Generation = 1, Population = 4.
*.......*
*.......*

Generation = 2, Population = 0.
.........
.........

*** Life<ConwayCell> 11x13 ***

Generation = 0, Population = 31.
*...*.......*
......*......
*.*.*.*..*.*.
......*.....*
*****........
......**..*..
...*........*
.......*.....
**.....*..*..
............*
......**..*..

Generation = 4, Population = 14.
.............
.............
...**........
.*.***.......
*..*..*......
**..**.......
....*........
.............
.............
.............
.............

Generation = 8, Population = 14.
.............
....*........
....***......
.......*.....
.......*.....
**..****.....
....**.......
.............
.............
.............
.............

*** Life<ConwayCell> 1x14 ***

Generation = 0, Population = 14.
**************

Generation = 1, Population = 12.
.************.

Generation = 2, Population = 10.
..**********..

Generation = 3, Population = 8.
...********...
